…
``` r
# Function 1, Show statistics of pokemons, including weight, height and strength.
pokemon_data() 
#> # A tibble: 787 x 10
#>    Pokemon_Name Weight Height    HP Attack Defense `Sp. Atk` `Sp. Def`
#>    <chr>         <int>  <int> <int>  <int>   <int>     <int>     <int>
#>  1 arceus         3200     32   120    120     120       120       120
#>  2 mewtwo         1220     20   106    110      90       154        90
#>  3 lugia          2160     52   106     90     130        90       154
#>  4 ho-oh          1990     38   106    130      90       110       154
#>  5 rayquaza       2065     70   105    150      90       150        90
#>  6 dialga         6830     54   100    120     120       150       100
#>  7 palkia         3360     42    90    120     100       150       120
#>  8 reshiram       3300     32   100    120     100       150       120
#>  9 zekrom         3450     29   100    150     120       120       100
#> 10 xerneas        2150     30   126    131      95       131        98
#> # … with 777 more rows, and 2 more variables: Speed <int>,
#> #   Total_Ability <int>
```
…
